{
  "type": "service_account",
  "project_id": "boguitest",
  "private_key_id": "52bbe6f90709dc7c490812d618670e567f1be977",
  "private_key": "-----BEGIN PRIVATE KEY-----\nMIIEvQIBADANBgkqhkiG9w0BAQEFAASCBKcwggSjAgEAAoIBAQDHSuNaN0ekS/uA\ntP8B2MDT0SPwF1gSQI+/yXK33cY06tD3JmSRO8cMHZxx3ZuEw0HCparzlnd5MVlQ\negx3matMD29PBeSipdBrxN7PmB1jmohw9aQvYmqXx/svdPLXAr9cISCJ/zntFOJn\n70BTAXmF83Dox4YDJkJfxX01F2dlvgFi+gK3pWIlDKKZ7hmYWEe4D8cwc92T7Uuk\nJWmd4b5qbMWEqWqUWtZXQhsTGpxfzwxOEiZpABXmM5gqz2VxdpcBfoEwhdNSMxNO\nNET3JFotclcWs6vRQxCSXYXUpnE6wG+HAul79YwdSuBPjy5sFUt+GnDrHgOT5glE\nyB/PUKEnAgMBAAECggEABr2eXv4hADT0YXATHVQ1gXSWIJge3ySBODLExzn1wEhz\nn52+0mK74smwRvGrQZxRFxeqET8fn2EZ7OzpNbUO5C20IsTHl5tq0e+rZvN1ha7u\nZSkJz/MmOSgHHkh4W5QONjwwm4+fEp5y4fe9AecPiIZUEADfpC+hGG2CRKTGrIbn\nVLCCGB7Vy3331CAX32oVHXe9wskmPv3NsVsf6/0FWH9lSeuSOpHevg5ZDQLY9xNF\nrRAWW5o/iOx8XaZmE6snWJvwThdATs4MSISYnITFFjYp1V6X9YqWGHwj3u0ttrlp\nRKSrtSDJ3678orFk7kz1uE6hxpCPAl+a/vor2H5qoQKBgQD8Aep3Qo/im80XeP32\n0ajYIknT4wee4NeNcy24FLx4+m0CYYYHJaC852sGE/cAtOZXbq/rzTuy2ZMfkv2H\nPc1rn+h8xFlsdbXZGmF8D/sFTYGXoIKiyaxisvE/0syxBFwSfN/uFthGJWpTaat5\nQfFnwEN7KS2eIVmk8atYCkJz6QKBgQDKcywsJSKsdkIppTha4i1B50lPyVpDdPI/\nU+ebxbTwapnZUCgRV54nTdZqTSTrcNRLM0F/Ppz9SK24BOgmfW52A6ko6eBdOxJj\n3fPC2Ib//iGOUUNIdLNwdoguP1LJO1f38TK5lvK8GOJwN3+BxNSpd0YgqH4wSr/R\nljEqUf+SjwKBgCoh895ejYnYfJCZFPTIFs+T4/397g89DizC/fjR1rTvQXxta6gU\nPWx30GfivKAsnnotslHdLUb4o2VbAPI0ffypbog1l7HPeEjE5VmFnnVDgRAlsNGg\noCacPkNqbfiGfxJEOHgo753CsaUifJ24TbEH7wBPYSYX81Hlab09ceDJAoGAU74C\nZpxR1G7yfVGHlyh5ugoW7DcI7GBimEl3w5qrdstRqm+as1m/5NgwujYA8Jbyaczg\n6eaXf7nhif4VnV5DI/PttCvSEB6QQ9karN1uMlQHw1vf7ge/9eRB/odZEj5G7BvM\ndLJ448+TUwHR73bg1NyumHG6CPXSlLqAydWzVwcCgYEA5Tz+D6mcHGfCD9FZtFWO\nF2tK2LwMviW0L4FWDw0Sbk2K/7NVxInBRij9iSNzjFsCqBMUPCR18q8H7n1yGbwf\n8df3MugCWqV8UAkJYmZ87zlZrAAW7BrEqrrE2CGFkWwz19HFEO+JV8YEufHDq2i+\nLCXXMwFJYjU54DMUoJqwh2c=\n-----END PRIVATE KEY-----\n",
  "client_email": "firebase-adminsdk-97eeo@boguitest.iam.gserviceaccount.com",
  "client_id": "100448579822441068714",
  "auth_uri": "https://accounts.google.com/o/oauth2/auth",
  "token_uri": "https://oauth2.googleapis.com/token",
  "auth_provider_x509_cert_url": "https://www.googleapis.com/oauth2/v1/certs",
  "client_x509_cert_url": "https://www.googleapis.com/robot/v1/metadata/x509/firebase-adminsdk-97eeo%40boguitest.iam.gserviceaccount.com"
}
